<svg xmlns="http://www.w3.org/2000/svg" width="83.813" height="133.13" viewBox="0 0 83.813 133.13">
  <g id="Group_1448" data-name="Group 1448" transform="translate(-1271.188 -4451.144)">
    <g id="Group_1377" data-name="Group 1377" transform="translate(756 225.092)">
      <path id="Path_791" data-name="Path 791" d="M331.708,376.505a4.676,4.676,0,1,1-4.676-4.676,4.676,4.676,0,0,1,4.676,4.676Z" transform="translate(192.999 4607.538) rotate(-90)" fill="#6dda5f"/>
      <path id="Path_792" data-name="Path 792" d="M342.613,376.505a4.676,4.676,0,1,1-4.676-4.676,4.676,4.676,0,0,1,4.676,4.676Z" transform="translate(192.999 4593.555) rotate(-90)" fill="#6dda5f"/>
      <path id="Path_793" data-name="Path 793" d="M353.519,376.505a4.676,4.676,0,1,1-4.676-4.676,4.676,4.676,0,0,1,4.676,4.676Z" transform="translate(192.999 4579.571) rotate(-90)" fill="#6dda5f"/>
      <path id="Path_794" data-name="Path 794" d="M364.424,376.505a4.676,4.676,0,1,1-4.676-4.676,4.676,4.676,0,0,1,4.676,4.676Z" transform="translate(143.358 4640.254) rotate(-90)" fill="#6dda5f"/>
      <path id="Path_795" data-name="Path 795" d="M375.329,376.505a4.676,4.676,0,1,1-4.676-4.676,4.676,4.676,0,0,1,4.676,4.676Z" transform="translate(143.358 4626.271) rotate(-90)" fill="#6dda5f"/>
      <path id="Path_796" data-name="Path 796" d="M386.234,376.505a4.676,4.676,0,1,1-4.676-4.676,4.676,4.676,0,0,1,4.676,4.676Z" transform="translate(143.358 4612.288) rotate(-90)" fill="#6dda5f"/>
      <path id="Path_801" data-name="Path 801" d="M331.708,387.38a4.676,4.676,0,1,1-4.676-4.676,4.676,4.676,0,0,1,4.676,4.676Z" transform="translate(206.944 4607.538) rotate(-90)" fill="#6dda5f"/>
      <path id="Path_802" data-name="Path 802" d="M342.613,387.38a4.676,4.676,0,1,1-4.676-4.676,4.676,4.676,0,0,1,4.676,4.676Z" transform="translate(206.944 4593.555) rotate(-90)" fill="#6dda5f"/>
      <path id="Path_803" data-name="Path 803" d="M353.519,387.38a4.676,4.676,0,1,1-4.676-4.676,4.676,4.676,0,0,1,4.676,4.676Z" transform="translate(206.944 4579.571) rotate(-90)" fill="#6dda5f"/>
      <path id="Path_804" data-name="Path 804" d="M364.424,387.38a4.676,4.676,0,1,1-4.676-4.676,4.676,4.676,0,0,1,4.676,4.676Z" transform="translate(157.304 4640.254) rotate(-90)" fill="#6dda5f"/>
      <circle id="Ellipse_255" data-name="Ellipse 255" cx="4.676" cy="4.676" r="4.676" transform="translate(540.007 4260.295) rotate(-90)" fill="#6dda5f"/>
      <circle id="Ellipse_256" data-name="Ellipse 256" cx="4.676" cy="4.676" r="4.676" transform="translate(540.007 4235.407) rotate(-90)" fill="#6dda5f"/>
    </g>
    <g id="Group_1378" data-name="Group 1378" transform="translate(756 299.092)">
      <path id="Path_791-2" data-name="Path 791" d="M331.708,376.505a4.676,4.676,0,1,1-4.676-4.676,4.676,4.676,0,0,1,4.676,4.676Z" transform="translate(192.999 4607.538) rotate(-90)" fill="#6dda5f"/>
      <path id="Path_792-2" data-name="Path 792" d="M342.613,376.505a4.676,4.676,0,1,1-4.676-4.676,4.676,4.676,0,0,1,4.676,4.676Z" transform="translate(192.999 4593.555) rotate(-90)" fill="#6dda5f"/>
      <path id="Path_793-2" data-name="Path 793" d="M353.519,376.505a4.676,4.676,0,1,1-4.676-4.676,4.676,4.676,0,0,1,4.676,4.676Z" transform="translate(192.999 4579.571) rotate(-90)" fill="#6dda5f"/>
      <path id="Path_794-2" data-name="Path 794" d="M364.424,376.505a4.676,4.676,0,1,1-4.676-4.676,4.676,4.676,0,0,1,4.676,4.676Z" transform="translate(143.358 4640.254) rotate(-90)" fill="#6dda5f"/>
      <path id="Path_795-2" data-name="Path 795" d="M375.329,376.505a4.676,4.676,0,1,1-4.676-4.676,4.676,4.676,0,0,1,4.676,4.676Z" transform="translate(143.358 4626.271) rotate(-90)" fill="#6dda5f"/>
      <path id="Path_796-2" data-name="Path 796" d="M386.234,376.505a4.676,4.676,0,1,1-4.676-4.676,4.676,4.676,0,0,1,4.676,4.676Z" transform="translate(143.358 4612.288) rotate(-90)" fill="#6dda5f"/>
      <path id="Path_801-2" data-name="Path 801" d="M331.708,387.38a4.676,4.676,0,1,1-4.676-4.676,4.676,4.676,0,0,1,4.676,4.676Z" transform="translate(206.944 4607.538) rotate(-90)" fill="#6dda5f"/>
      <path id="Path_802-2" data-name="Path 802" d="M342.613,387.38a4.676,4.676,0,1,1-4.676-4.676,4.676,4.676,0,0,1,4.676,4.676Z" transform="translate(206.944 4593.555) rotate(-90)" fill="#6dda5f"/>
      <path id="Path_803-2" data-name="Path 803" d="M353.519,387.38a4.676,4.676,0,1,1-4.676-4.676,4.676,4.676,0,0,1,4.676,4.676Z" transform="translate(206.944 4579.571) rotate(-90)" fill="#6dda5f"/>
      <path id="Path_804-2" data-name="Path 804" d="M364.424,387.38a4.676,4.676,0,1,1-4.676-4.676,4.676,4.676,0,0,1,4.676,4.676Z" transform="translate(157.304 4640.254) rotate(-90)" fill="#6dda5f"/>
      <circle id="Ellipse_255-2" data-name="Ellipse 255" cx="4.676" cy="4.676" r="4.676" transform="translate(540.007 4260.295) rotate(-90)" fill="#6dda5f"/>
      <circle id="Ellipse_256-2" data-name="Ellipse 256" cx="4.676" cy="4.676" r="4.676" transform="translate(540.007 4235.407) rotate(-90)" fill="#6dda5f"/>
    </g>
  </g>
</svg>
