<svg xmlns="http://www.w3.org/2000/svg" xmlns:xlink="http://www.w3.org/1999/xlink" width="211" height="254" viewBox="0 0 211 254">
  <defs>
    <clipPath id="clip-path">
      <rect id="Rectangle_599" data-name="Rectangle 599" width="211" height="254" transform="translate(0 -0.394)" fill="#fff" stroke="#707070" stroke-width="1"/>
    </clipPath>
  </defs>
  <g id="Mask_Group_39" data-name="Mask Group 39" transform="translate(0 0.394)" clip-path="url(#clip-path)">
    <g id="Group_1293" data-name="Group 1293" transform="translate(-27.148 32.584)">
      <path id="Path_932" data-name="Path 932" d="M964.188,1213s41.753-1.529,72.53,50.434,2.25,104.847,48.006,131.154,72.883,15.674,87.663,45.4S955.7,1457.106,955.7,1457.106Z" transform="translate(-924.526 -1193.18)" fill="#6dda5f"/>
      <path id="Path_933" data-name="Path 933" d="M964.188,1213s41.753-1.529,72.53,50.434,2.25,104.847,48.006,131.154,72.883,15.674,87.663,45.4S955.7,1457.106,955.7,1457.106Z" transform="translate(-955.699 -1212.991)" fill="#242e3b"/>
    </g>
  </g>
</svg>
