<svg xmlns="http://www.w3.org/2000/svg" xmlns:xlink="http://www.w3.org/1999/xlink" width="63" height="314" viewBox="0 0 63 314">
  <defs>
    <clipPath id="clip-path">
      <rect id="Rectangle_635" data-name="Rectangle 635" width="63" height="314" transform="translate(0 1403)" fill="#fff" stroke="#707070" stroke-width="1"/>
    </clipPath>
  </defs>
  <g id="Mask_Group_41" data-name="Mask Group 41" transform="translate(0 -1403)" clip-path="url(#clip-path)">
    <g id="green-circle" transform="translate(90.465 2022.815) rotate(180)">
      <g id="Group_1126" data-name="Group 1126" transform="translate(152.547 341.71)">
        <path id="Path_747" data-name="Path 747" d="M103.375,352.129a5.209,5.209,0,1,1,5.208-5.208,5.209,5.209,0,0,1-5.208,5.208Z" transform="translate(-98.165 -341.71)" fill="none" stroke="#6dda5f" stroke-miterlimit="10" stroke-width="1"/>
        <path id="Path_748" data-name="Path 748" d="M103.375,366.219a5.209,5.209,0,1,1,5.208-5.208,5.209,5.209,0,0,1-5.208,5.208Z" transform="translate(-98.165 -328.076)" fill="none" stroke="#6dda5f" stroke-miterlimit="10" stroke-width="1"/>
        <path id="Path_749" data-name="Path 749" d="M103.375,380.309a5.209,5.209,0,1,1,5.208-5.209,5.209,5.209,0,0,1-5.208,5.209Z" transform="translate(-98.165 -314.441)" fill="none" stroke="#6dda5f" stroke-miterlimit="10" stroke-width="1"/>
        <path id="Path_750" data-name="Path 750" d="M103.375,394.4a5.209,5.209,0,1,1,5.208-5.209,5.209,5.209,0,0,1-5.208,5.209Z" transform="translate(-98.165 -300.807)" fill="none" stroke="#6dda5f" stroke-miterlimit="10" stroke-width="1"/>
        <path id="Path_751" data-name="Path 751" d="M103.375,408.489a5.209,5.209,0,1,1,5.208-5.209A5.209,5.209,0,0,1,103.375,408.489Z" transform="translate(-98.165 -287.172)" fill="none" stroke="#6dda5f" stroke-miterlimit="10" stroke-width="1"/>
        <path id="Path_752" data-name="Path 752" d="M103.375,422.577a5.208,5.208,0,1,1,5.208-5.208,5.208,5.208,0,0,1-5.208,5.208Z" transform="translate(-98.165 -273.538)" fill="none" stroke="#6dda5f" stroke-miterlimit="10" stroke-width="1"/>
        <path id="Path_753" data-name="Path 753" d="M103.375,436.667a5.208,5.208,0,1,1,5.208-5.208,5.208,5.208,0,0,1-5.208,5.208Z" transform="translate(-98.165 -259.904)" fill="none" stroke="#6dda5f" stroke-miterlimit="10" stroke-width="1"/>
        <path id="Path_754" data-name="Path 754" d="M103.375,450.757a5.208,5.208,0,1,1,5.208-5.208A5.208,5.208,0,0,1,103.375,450.757Z" transform="translate(-98.165 -246.269)" fill="none" stroke="#6dda5f" stroke-miterlimit="10" stroke-width="1"/>
        <path id="Path_755" data-name="Path 755" d="M103.375,464.847a5.208,5.208,0,1,1,5.208-5.208,5.208,5.208,0,0,1-5.208,5.208Z" transform="translate(-98.165 -232.635)" fill="none" stroke="#6dda5f" stroke-miterlimit="10" stroke-width="1"/>
        <path id="Path_756" data-name="Path 756" d="M103.375,478.937a5.208,5.208,0,1,1,5.208-5.208A5.208,5.208,0,0,1,103.375,478.937Z" transform="translate(-98.165 -219.001)" fill="none" stroke="#6dda5f" stroke-miterlimit="10" stroke-width="1"/>
      </g>
      <g id="Group_1127" data-name="Group 1127" transform="translate(124.901 341.71)">
        <path id="Path_757" data-name="Path 757" d="M89.325,352.129a5.209,5.209,0,1,1,5.208-5.208,5.209,5.209,0,0,1-5.208,5.208Z" transform="translate(-84.115 -341.71)" fill="none" stroke="#6dda5f" stroke-miterlimit="10" stroke-width="1"/>
        <path id="Path_758" data-name="Path 758" d="M89.325,366.219a5.209,5.209,0,1,1,5.208-5.208,5.209,5.209,0,0,1-5.208,5.208Z" transform="translate(-84.115 -328.076)" fill="none" stroke="#6dda5f" stroke-miterlimit="10" stroke-width="1"/>
        <path id="Path_759" data-name="Path 759" d="M89.325,380.309a5.209,5.209,0,1,1,5.208-5.209,5.209,5.209,0,0,1-5.208,5.209Z" transform="translate(-84.115 -314.441)" fill="none" stroke="#6dda5f" stroke-miterlimit="10" stroke-width="1"/>
        <circle id="Ellipse_247" data-name="Ellipse 247" cx="5.209" cy="5.209" r="5.209" transform="translate(0.001 83.173)" fill="none" stroke="#6dda5f" stroke-miterlimit="10" stroke-width="1"/>
        <path id="Path_760" data-name="Path 760" d="M89.325,408.489a5.209,5.209,0,1,1,5.208-5.209,5.209,5.209,0,0,1-5.208,5.209Z" transform="translate(-84.115 -287.172)" fill="none" stroke="#6dda5f" stroke-miterlimit="10" stroke-width="1"/>
        <path id="Path_761" data-name="Path 761" d="M89.325,422.577a5.208,5.208,0,1,1,5.208-5.208,5.208,5.208,0,0,1-5.208,5.208Z" transform="translate(-84.115 -273.538)" fill="none" stroke="#6dda5f" stroke-miterlimit="10" stroke-width="1"/>
        <path id="Path_762" data-name="Path 762" d="M89.325,436.667a5.208,5.208,0,1,1,5.208-5.208,5.208,5.208,0,0,1-5.208,5.208Z" transform="translate(-84.115 -259.904)" fill="none" stroke="#6dda5f" stroke-miterlimit="10" stroke-width="1"/>
        <path id="Path_763" data-name="Path 763" d="M89.325,450.757a5.208,5.208,0,1,1,5.208-5.208,5.208,5.208,0,0,1-5.208,5.208Z" transform="translate(-84.115 -246.269)" fill="none" stroke="#6dda5f" stroke-miterlimit="10" stroke-width="1"/>
        <circle id="Ellipse_248" data-name="Ellipse 248" cx="5.209" cy="5.209" r="5.209" transform="translate(0.001 221.794)" fill="none" stroke="#6dda5f" stroke-miterlimit="10" stroke-width="1"/>
        <path id="Path_764" data-name="Path 764" d="M89.325,478.937a5.208,5.208,0,1,1,5.208-5.208,5.208,5.208,0,0,1-5.208,5.208Z" transform="translate(-84.115 -219.001)" fill="none" stroke="#6dda5f" stroke-miterlimit="10" stroke-width="1"/>
      </g>
      <g id="Group_1128" data-name="Group 1128" transform="translate(97.256 341.71)">
        <path id="Path_765" data-name="Path 765" d="M75.275,352.129a5.209,5.209,0,1,1,5.208-5.208,5.209,5.209,0,0,1-5.208,5.208Z" transform="translate(-70.065 -341.71)" fill="none" stroke="#6dda5f" stroke-miterlimit="10" stroke-width="1"/>
        <path id="Path_766" data-name="Path 766" d="M75.275,366.219a5.209,5.209,0,1,1,5.208-5.208,5.209,5.209,0,0,1-5.208,5.208Z" transform="translate(-70.065 -328.076)" fill="none" stroke="#6dda5f" stroke-miterlimit="10" stroke-width="1"/>
        <path id="Path_767" data-name="Path 767" d="M75.275,380.309a5.209,5.209,0,1,1,5.208-5.209,5.209,5.209,0,0,1-5.208,5.209Z" transform="translate(-70.065 -314.441)" fill="none" stroke="#6dda5f" stroke-miterlimit="10" stroke-width="1"/>
        <circle id="Ellipse_249" data-name="Ellipse 249" cx="5.209" cy="5.209" r="5.209" transform="translate(0.001 83.173)" fill="none" stroke="#6dda5f" stroke-miterlimit="10" stroke-width="1"/>
        <path id="Path_768" data-name="Path 768" d="M75.275,408.489a5.209,5.209,0,1,1,5.208-5.209A5.209,5.209,0,0,1,75.275,408.489Z" transform="translate(-70.065 -287.172)" fill="none" stroke="#6dda5f" stroke-miterlimit="10" stroke-width="1"/>
        <path id="Path_769" data-name="Path 769" d="M75.275,422.577a5.208,5.208,0,1,1,5.208-5.208,5.208,5.208,0,0,1-5.208,5.208Z" transform="translate(-70.065 -273.538)" fill="none" stroke="#6dda5f" stroke-miterlimit="10" stroke-width="1"/>
        <path id="Path_770" data-name="Path 770" d="M75.275,436.667a5.208,5.208,0,1,1,5.208-5.208,5.208,5.208,0,0,1-5.208,5.208Z" transform="translate(-70.065 -259.904)" fill="none" stroke="#6dda5f" stroke-miterlimit="10" stroke-width="1"/>
        <path id="Path_771" data-name="Path 771" d="M75.275,450.757a5.208,5.208,0,1,1,5.208-5.208A5.208,5.208,0,0,1,75.275,450.757Z" transform="translate(-70.065 -246.269)" fill="none" stroke="#6dda5f" stroke-miterlimit="10" stroke-width="1"/>
        <circle id="Ellipse_250" data-name="Ellipse 250" cx="5.209" cy="5.209" r="5.209" transform="translate(0.001 221.794)" fill="none" stroke="#6dda5f" stroke-miterlimit="10" stroke-width="1"/>
        <path id="Path_772" data-name="Path 772" d="M75.275,478.937a5.208,5.208,0,1,1,5.208-5.208A5.208,5.208,0,0,1,75.275,478.937Z" transform="translate(-70.065 -219.001)" fill="none" stroke="#6dda5f" stroke-miterlimit="10" stroke-width="1"/>
      </g>
      <g id="Group_1129" data-name="Group 1129" transform="translate(69.611 341.71)">
        <path id="Path_773" data-name="Path 773" d="M61.224,352.129a5.209,5.209,0,1,1,5.208-5.208,5.209,5.209,0,0,1-5.208,5.208Z" transform="translate(-56.015 -341.71)" fill="none" stroke="#6dda5f" stroke-miterlimit="10" stroke-width="1"/>
        <path id="Path_774" data-name="Path 774" d="M61.224,366.219a5.209,5.209,0,1,1,5.208-5.208,5.209,5.209,0,0,1-5.208,5.208Z" transform="translate(-56.015 -328.076)" fill="none" stroke="#6dda5f" stroke-miterlimit="10" stroke-width="1"/>
        <path id="Path_775" data-name="Path 775" d="M61.224,380.309a5.209,5.209,0,1,1,5.208-5.209,5.209,5.209,0,0,1-5.208,5.209Z" transform="translate(-56.015 -314.441)" fill="none" stroke="#6dda5f" stroke-miterlimit="10" stroke-width="1"/>
        <circle id="Ellipse_251" data-name="Ellipse 251" cx="5.209" cy="5.209" r="5.209" transform="translate(0 83.173)" fill="none" stroke="#6dda5f" stroke-miterlimit="10" stroke-width="1"/>
        <path id="Path_776" data-name="Path 776" d="M61.224,408.489a5.209,5.209,0,1,1,5.208-5.209,5.209,5.209,0,0,1-5.208,5.209Z" transform="translate(-56.015 -287.172)" fill="none" stroke="#6dda5f" stroke-miterlimit="10" stroke-width="1"/>
        <path id="Path_777" data-name="Path 777" d="M61.224,422.577a5.208,5.208,0,1,1,5.208-5.208,5.208,5.208,0,0,1-5.208,5.208Z" transform="translate(-56.015 -273.538)" fill="none" stroke="#6dda5f" stroke-miterlimit="10" stroke-width="1"/>
        <path id="Path_778" data-name="Path 778" d="M61.224,436.667a5.208,5.208,0,1,1,5.208-5.208,5.208,5.208,0,0,1-5.208,5.208Z" transform="translate(-56.015 -259.904)" fill="none" stroke="#6dda5f" stroke-miterlimit="10" stroke-width="1"/>
        <path id="Path_779" data-name="Path 779" d="M61.224,450.757a5.208,5.208,0,1,1,5.208-5.208,5.208,5.208,0,0,1-5.208,5.208Z" transform="translate(-56.015 -246.269)" fill="none" stroke="#6dda5f" stroke-miterlimit="10" stroke-width="1"/>
        <circle id="Ellipse_252" data-name="Ellipse 252" cx="5.209" cy="5.209" r="5.209" transform="translate(0 221.794)" fill="none" stroke="#6dda5f" stroke-miterlimit="10" stroke-width="1"/>
        <path id="Path_780" data-name="Path 780" d="M61.224,478.937a5.208,5.208,0,1,1,5.208-5.208,5.208,5.208,0,0,1-5.208,5.208Z" transform="translate(-56.015 -219.001)" fill="none" stroke="#6dda5f" stroke-miterlimit="10" stroke-width="1"/>
      </g>
      <g id="Group_1130" data-name="Group 1130" transform="translate(41.966 341.71)">
        <path id="Path_781" data-name="Path 781" d="M47.174,352.129a5.209,5.209,0,1,1,5.21-5.209,5.209,5.209,0,0,1-5.21,5.209Z" transform="translate(-41.965 -341.71)" fill="none" stroke="#6dda5f" stroke-miterlimit="10" stroke-width="1"/>
        <path id="Path_782" data-name="Path 782" d="M47.174,366.219a5.209,5.209,0,1,1,5.21-5.209,5.209,5.209,0,0,1-5.21,5.209Z" transform="translate(-41.965 -328.076)" fill="none" stroke="#6dda5f" stroke-miterlimit="10" stroke-width="1"/>
        <path id="Path_783" data-name="Path 783" d="M47.174,380.309a5.209,5.209,0,1,1,5.21-5.21,5.209,5.209,0,0,1-5.21,5.21Z" transform="translate(-41.965 -314.441)" fill="none" stroke="#6dda5f" stroke-miterlimit="10" stroke-width="1"/>
        <circle id="Ellipse_253" data-name="Ellipse 253" cx="5.209" cy="5.209" r="5.209" transform="translate(0 83.173)" fill="none" stroke="#6dda5f" stroke-miterlimit="10" stroke-width="1"/>
        <path id="Path_784" data-name="Path 784" d="M47.174,408.489a5.209,5.209,0,1,1,5.21-5.21,5.209,5.209,0,0,1-5.21,5.21Z" transform="translate(-41.965 -287.172)" fill="none" stroke="#6dda5f" stroke-miterlimit="10" stroke-width="1"/>
        <path id="Path_785" data-name="Path 785" d="M47.174,422.577a5.208,5.208,0,1,1,5.21-5.209,5.208,5.208,0,0,1-5.21,5.209Z" transform="translate(-41.965 -273.538)" fill="none" stroke="#6dda5f" stroke-miterlimit="10" stroke-width="1"/>
        <path id="Path_786" data-name="Path 786" d="M47.174,436.667a5.208,5.208,0,1,1,5.21-5.209,5.208,5.208,0,0,1-5.21,5.209Z" transform="translate(-41.965 -259.904)" fill="none" stroke="#6dda5f" stroke-miterlimit="10" stroke-width="1"/>
        <path id="Path_787" data-name="Path 787" d="M47.174,450.757a5.208,5.208,0,1,1,5.21-5.209,5.208,5.208,0,0,1-5.21,5.209Z" transform="translate(-41.965 -246.269)" fill="none" stroke="#6dda5f" stroke-miterlimit="10" stroke-width="1"/>
        <circle id="Ellipse_254" data-name="Ellipse 254" cx="5.209" cy="5.209" r="5.209" transform="translate(0 221.794)" fill="none" stroke="#6dda5f" stroke-miterlimit="10" stroke-width="1"/>
        <path id="Path_788" data-name="Path 788" d="M47.174,478.937a5.208,5.208,0,1,1,5.21-5.209,5.208,5.208,0,0,1-5.21,5.209Z" transform="translate(-41.965 -219.001)" fill="none" stroke="#6dda5f" stroke-miterlimit="10" stroke-width="1"/>
      </g>
    </g>
  </g>
</svg>
