<svg xmlns="http://www.w3.org/2000/svg" width="58.988" height="158.682" viewBox="0 0 58.988 158.682">
  <g id="green-dot-_subscribtion" data-name="green-dot- subscribtion" transform="translate(-2239.645 1462.459) rotate(-90)">
    <g id="Group_1134" data-name="Group 1134" transform="translate(1254 2239.645)">
      <g id="Group_1131" data-name="Group 1131">
        <path id="Path_791" data-name="Path 791" d="M331.708,376.505a4.676,4.676,0,1,1-4.676-4.676,4.676,4.676,0,0,1,4.676,4.676Z" transform="translate(-272.579 -371.829)" fill="#6dda5f"/>
        <path id="Path_792" data-name="Path 792" d="M342.613,376.505a4.676,4.676,0,1,1-4.676-4.676,4.676,4.676,0,0,1,4.676,4.676Z" transform="translate(-258.596 -371.829)" fill="#6dda5f"/>
        <path id="Path_793" data-name="Path 793" d="M353.519,376.505a4.676,4.676,0,1,1-4.676-4.676,4.676,4.676,0,0,1,4.676,4.676Z" transform="translate(-244.612 -371.829)" fill="#6dda5f"/>
        <path id="Path_794" data-name="Path 794" d="M364.424,376.505a4.676,4.676,0,1,1-4.676-4.676,4.676,4.676,0,0,1,4.676,4.676Z" transform="translate(-230.629 -371.829)" fill="#6dda5f"/>
        <path id="Path_795" data-name="Path 795" d="M375.329,376.505a4.676,4.676,0,1,1-4.676-4.676,4.676,4.676,0,0,1,4.676,4.676Z" transform="translate(-216.646 -371.829)" fill="#6dda5f"/>
        <path id="Path_796" data-name="Path 796" d="M386.234,376.505a4.676,4.676,0,1,1-4.676-4.676,4.676,4.676,0,0,1,4.676,4.676Z" transform="translate(-202.663 -371.829)" fill="#6dda5f"/>
        <path id="Path_797" data-name="Path 797" d="M397.139,376.505a4.676,4.676,0,1,1-4.676-4.676,4.676,4.676,0,0,1,4.676,4.676Z" transform="translate(-188.68 -371.829)" fill="#6dda5f"/>
      </g>
      <g id="Group_1132" data-name="Group 1132" transform="translate(0 24.819)">
        <path id="Path_801" data-name="Path 801" d="M331.708,387.38a4.676,4.676,0,1,1-4.676-4.676,4.676,4.676,0,0,1,4.676,4.676Z" transform="translate(-272.579 -382.703)" fill="#6dda5f"/>
        <path id="Path_802" data-name="Path 802" d="M342.613,387.38a4.676,4.676,0,1,1-4.676-4.676,4.676,4.676,0,0,1,4.676,4.676Z" transform="translate(-258.596 -382.703)" fill="#6dda5f"/>
        <path id="Path_803" data-name="Path 803" d="M353.519,387.38a4.676,4.676,0,1,1-4.676-4.676,4.676,4.676,0,0,1,4.676,4.676Z" transform="translate(-244.612 -382.703)" fill="#6dda5f"/>
        <path id="Path_804" data-name="Path 804" d="M364.424,387.38a4.676,4.676,0,1,1-4.676-4.676,4.676,4.676,0,0,1,4.676,4.676Z" transform="translate(-230.629 -382.703)" fill="#6dda5f"/>
        <circle id="Ellipse_255" data-name="Ellipse 255" cx="4.676" cy="4.676" r="4.676" transform="translate(149.33 0)" fill="#6dda5f"/>
        <circle id="Ellipse_256" data-name="Ellipse 256" cx="4.676" cy="4.676" r="4.676" transform="translate(174.218 0)" fill="#6dda5f"/>
        <circle id="Ellipse_257" data-name="Ellipse 257" cx="4.676" cy="4.676" r="4.676" transform="translate(199.107 0)" fill="#6dda5f"/>
      </g>
      <g id="Group_1133" data-name="Group 1133" transform="translate(0 49.636)">
        <path id="Path_807" data-name="Path 807" d="M331.708,398.254a4.676,4.676,0,1,1-4.676-4.676,4.676,4.676,0,0,1,4.676,4.676Z" transform="translate(-272.579 -393.578)" fill="#6dda5f"/>
        <path id="Path_808" data-name="Path 808" d="M342.613,398.254a4.676,4.676,0,1,1-4.676-4.676,4.676,4.676,0,0,1,4.676,4.676Z" transform="translate(-258.596 -393.578)" fill="#6dda5f"/>
        <path id="Path_809" data-name="Path 809" d="M353.519,398.254a4.676,4.676,0,1,1-4.676-4.676,4.676,4.676,0,0,1,4.676,4.676Z" transform="translate(-244.612 -393.578)" fill="#6dda5f"/>
        <path id="Path_810" data-name="Path 810" d="M364.424,398.254a4.676,4.676,0,1,1-4.676-4.676,4.676,4.676,0,0,1,4.676,4.676Z" transform="translate(-230.629 -393.578)" fill="#6dda5f"/>
        <circle id="Ellipse_259" data-name="Ellipse 259" cx="4.676" cy="4.676" r="4.676" transform="translate(149.33 0)" fill="#6dda5f"/>
        <circle id="Ellipse_260" data-name="Ellipse 260" cx="4.676" cy="4.676" r="4.676" transform="translate(174.218 0)" fill="#6dda5f"/>
        <circle id="Ellipse_261" data-name="Ellipse 261" cx="4.676" cy="4.676" r="4.676" transform="translate(199.107 0)" fill="#6dda5f"/>
      </g>
    </g>
  </g>
</svg>
